<svg xmlns="http://www.w3.org/2000/svg" width="29.948" height="30.083" viewBox="0 0 29.948 30.083">
  <path id="TFCU_assetsLinkedIn" data-name="TFCU assetsLinkedIn" d="M35.978,21.8h.7a15.266,15.266,0,0,1,9.432,3.639q3.5,3.5,4.275,6.357a9.13,9.13,0,0,1,.7,2.67c.119,1,.175,1.645.175,1.947v1.422a16.527,16.527,0,0,1-1.414,5.427,15.629,15.629,0,0,1-7.2,7.191,16.575,16.575,0,0,1-6.229,1.43H36.24a15.1,15.1,0,0,1-10.218-4.092,14.838,14.838,0,0,1-3.639-5.34,14.644,14.644,0,0,1-1.073-4.6V36.007q0-4.585,3.822-9.328Q30.13,21.808,35.978,21.8Zm-5.689,9.591v.54a1.518,1.518,0,0,0,1.685,1.335,1.637,1.637,0,0,0,1.589-1.335v-.087c0-.914-.564-1.454-1.692-1.589a1.74,1.74,0,0,0-1.581,1.136Zm.175,3.178v8.3a.169.169,0,0,0,.175.183h2.487c.119,0,.175-.064.175-.183v-8.1l-.175-.35H30.638c-.111.016-.175.079-.175.175Zm7.477.715H37.75v-.866H34.913v8.446a.169.169,0,0,0,.175.183h2.487a.159.159,0,0,0,.175-.183V38.335c.143-1.247.652-1.867,1.518-1.867,1,0,1.51.62,1.51,1.867v4.529a.165.165,0,0,0,.175.183h2.67V37.485a3.655,3.655,0,0,0-1.43-2.813,5.562,5.562,0,0,0-1.327-.437h-.9a3,3,0,0,0-2.026,1.073Z" transform="translate(-21.31 -21.8)" fill="#818285"/>
</svg>
