<?xml version="1.0" encoding="UTF-8"?>
<svg width="54px" height="54px" viewBox="0 0 54 54" version="1.1" xmlns="http://www.w3.org/2000/svg" xmlns:xlink="http://www.w3.org/1999/xlink">
    <!-- Generator: Sketch 51.2 (57519) - http://www.bohemiancoding.com/sketch -->
    <title>Group 2</title>
    <desc>Created with Sketch.</desc>
    <defs></defs>
    <g id="Page-1" stroke="none" stroke-width="1" fill="none" fill-rule="evenodd">
        <g id="Group-2" transform="translate(1.000000, 1.000000)" fill-rule="nonzero">
            <circle id="Oval" stroke="#FFFFFF" cx="26" cy="26" r="26"></circle>
            <g id="Group" transform="translate(16.000000, 16.000000)" fill="#FFFFFF">
                <rect id="Rectangle" transform="translate(9.899495, 9.899495) rotate(-315.000000) translate(-9.899495, -9.899495) " x="-3.10050506" y="8.89949494" width="26" height="2"></rect>
                <rect id="Rectangle-Copy" transform="translate(10.000000, 10.000000) rotate(-45.000000) translate(-10.000000, -10.000000) " x="-3" y="9" width="26" height="2"></rect>
            </g>
        </g>
    </g>
</svg>