<svg xmlns="http://www.w3.org/2000/svg" width="30.067" height="30.091" viewBox="0 0 30.067 30.091">
  <path id="TFCU_assetsYoutube" data-name="TFCU assetsYoutube" d="M37.593,21.84q7.366,0,12.268,6.4a15.55,15.55,0,0,1,2.765,8.74,15.2,15.2,0,0,1-3.83,9.869,15.043,15.043,0,0,1-11.2,5.077q-7.231,0-12.173-6.229a16.686,16.686,0,0,1-2.511-5.459l-.35-2.487V36.166A16.035,16.035,0,0,1,24.5,29.4Q29.5,21.84,37.593,21.84Zm-.628,9.249c-4.974,0-7.469.389-7.469,1.16q-.572.35-.7,4.767V37.1c0,3.353.413,5.26,1.24,5.705a13.377,13.377,0,0,0,4.45.437H42.5q2.789,0,3.29-1.24a12.634,12.634,0,0,0,.524-4.275V36.516q0-4.172-1.065-4.895Q44.435,31.089,36.966,31.089Zm-1.152,3.647H35.9a42.422,42.422,0,0,1,4.354,2.384l-4.164,2.328h-.278Z" transform="translate(-22.56 -21.84)" fill="#818285"/>
</svg>
